;;;;
ACEStream;118104064;;;
Adobe Reader Cloud;252182784, 252183040;;;
AdobeCloud;252183040, 252183000;;;
Akamai;255983872;;;
Alicall Callback;101712640;;;
Alicall Control(TCP/UDP call);101712896;;;
Alicall over TCP;101712128;;;
Alicall over UDP;101711872;;;
Amazon Appstore;134873856;;;
Amazon Instant Video;NA;;;
AmazonAppDownload;134873600;;;
AmazonCloud;251920384;;;
AmazonCloud Drive;251920640;;;
AmazonCloud Player;251920896;;;
AmazonInstantVideo;221335808, 221336064;;;
Ameba.jp;253100288;;;
AndroidMarketDataFlow;134807808;;;120717312
Angle Media;201392159;201392153;201392153;
AntsP2P;119406592;201392138;;
Apple IMessage;187695616;;;
Apple iMessage Image and Video;187695616;;;
Apple iMessage text;187695360;;;
AppleMaps;50868224;;;
ARD Mediathek;220332288;;;
ArteMediathek;220856576;;;
Audio over HTTP;201392133;50398464;;
BaiBao Download;118751232;201392152;;
BaiBao Networking;118751488;201392152;;
Baidu;134959872, 134960128, 134960384;;;
Baidu Appstore;134959616;;;
Baidu Movie;201392135;134479872;;84934912
BBC iplayer ListenLive over RTMP;120522496;;;84935168
BBC iplayer WatchLive over RTMP;120522240;;;84935424
Bebo;50860032, 50860288, 50860544;;;84935680
Behavioral RTP;201392155;201392149;201392149;84934656
Behavioral Skype VoIP;201392156;201392150;201392150;
Behavioral SkypeIN;201392157;201392151;201392151;
Behavioral SkypeOUT;201392158;201392152;201392152;
Behavioral VoIP;201392154;201392148;201392148;
Binary over HTTP;201392134;50398976;;
BitCoin;121659648;;;
BitLord torrent client;118096384, 118096896;;;
Bitmessage;195166464;;;
BitTorrent;118095872;;;
BitTorrent Aged Flow Continuation;118096640;;;
BitTorrent File Transfer;118096384;;;
BitTorrent File Transfer DNA;118099200;;;
BitTorrent File Transfer DNA - Uni Client Request;118099456;;;
BitTorrent Networking;118096128;;;
BitTorrent Networking DNA;118098688;;;
BitTorrent Networking DNA - Uni Client Request;118098944;;;
BitTorrent Sync;118099968;;;
BR Mediathek;220397824;;;
BT Sport;220463360;;;
Bump;121647360;;;
Candy Crush Saga;270012672;;;
Carousel;NA;;;
Cbox;218760448;;;
Certificate-Based OpenVPN over TCP;167969280;;;
Certificate-Based OpenVPN over UDP;167969024;;;
ChampionsOnlineTCP;269156608;;;
ChatON;193986816;;;
ChatON;193986816;;;
CinepolisKlic;219742464, 219742720;;;
Citrix over TCP;285278720;;;
Citrix over TCP - Unidirectional Client Request;285278464;;;
clipfish.de;219676928;;;
CloudME;252055808;;;
Club Box;201392131;134414336;;
COD BlackOps TCP;269287680;;;
COD BlackOps UDP;269287936;;;
Comm;87056640, 87056896;;;
Crackle;220266752;;;
Crashplan;254804224;;;
Credentials-Based OpenVPN over TCP;167969792;;;
Credentials-Based OpenVPN over UDP;167969536;;;
CUWorld;184942592;201392134;;
CUWorld over Jabber;184943104;201392134;;
CUWorld over RTP;184942848;201392134;;
Dailymotion;219152896;;;
DailyMotionWebcamUpload;219152640;;;
Daum MyPeople Voice;87097600;;;
Daum-login;67698944;;;
Deezer;—;;;
DHCP;100794368;;;
Dial91;87073024;;;
Dijjer;119078912;201392144;;
DingoTel;84541440;;;
Direct Connect;117899264;;;
Direct Connect Client;117899520;;;
Direct Connect Servers;117899776;;;
DNS;33685505;;;
Dota2;270008576;;;
Download;134284544;;;
Download-Unidirectional Client Request;134284800;;;
DroidVPN;168046848, 168047104;;;
Dropbox signature;134742016;;;
eBay;302317824;;;
eBuddy XMS;189792512;;;
EDonkey;117833728;;;
Einy SSL;121307392;;;
Encapsulated ESP;167904000;;;
Encrypted BitTorrent;118096896;118096384;;
ESPN Streaming;221368320, 221368576, 221368832;;;
Exosee;119275520;201392160;;
Eyebeam;87077120;;;
Facebook Messenger Chat;87036160;;;
Facebook Over HTTPS;252117248;;;
Facebook Slingshot;195235840;;;
Facebook voip;87036416;;;
Facebook_SPDY;87036672, 252117760, 255984128;;;
FacebookVoip;87036416;;;
Facetime Data Flow UDP;86507776;;;
Fasttrack File Transfer non HTTP;117572096;;;
Fasttrack File Transfer over HTTP;117572352;;;
Fasttrack Networking;117571840;;;
Feidian;201392129;120127488;;
Fileguri HTTP Like over UDP;120980224;;;
Fileguri over HTTP;120979712;;;
Fileguri over HTTP - Unidirectional Client Request;120979968;;;
Filetopia File Transfer;118227456;;;
Filetopia Networking;118227200;;;
Final Fantasy;269680896, 269681152;;;
Flash YouTube (YouTube Audio);221249792;;;
Flash YouTube HQ;50404096;;;
Flash YouTube HQ Unidirectional Client Request;50404352;;;
FourSquare;252313856, 252314112;;;
FoxTube;220987648;;;
Fring;85000192;;;
Fring VOIP;85000448;;;
FTP;50462720;;;
FunshionTCP Buffering;218890240;;;
FunshionTCP Buffering - Unidirectional Client Request;218890496;;;
FunshionUDP Playing;218890752;;;
FunshionUDP Playing - Unidirectional Client Request;218891008;;;
Furthur;119209984;201392208;;
Gadu Gadu Chat-Photo-FT New;185533696;;;
Gadu Gadu Login New;185533440;;;
Gadu-FT;185532928;;;
Gadu-login-chat;185532672;;;
Gadu-Radio;185533184;;;
Generic;16777216;;;
Generic Download;16842752;—;;
Generic Non-Established TCP;16908288;—;;
Generic-IPV6;16973824;;;
Generic-IPV6-Non Established;16974592;;;
Getflix;168063232;;;
Gmail Video;85526544;;;
Gmail Video SSL;85526016;;;
Gmail Video TCP;85525504;;;
Gmail Video UDP;85525760;;;
Gmail VOIP SSL;85526528;;;
Gmail VOIP TCP;85526272;;;
Gnutella 2 Networking;117506816;;;
Gnutella File Transfer;117506560;;;
Gnutella Networking;117506304;;;
Google Hangout;85525760, 85526016, 85526528, 85526544, 185075456;;;
Google Maps;190844928;;;
Google Plus;256200704;;;
Google search;256180480, 256180736;;;
Google Talk;201392130;185073664;;
Google Talk SSL;185075968;;;
Google Talk Voice RTP;185075712;;;
Google Voice over HTTPS;85524480;;;
Google_SPDY;251724800, 134808576, 256180992, 221315072, 50373120, 50373376, 256201216, 256201472, 67568384, 251986176;;;
GoogleDrive;251985920;;;
GoogleEarth;251723776;201392133;;
GoogleEarthSSL;251724544;;;
GoogleGoggles;50409472;;;
GoogleMaps;190845184;;;
GooglePlayMovies;—;;;
GroupMe;195035648;;;
Guruguru;119668736;201392129;;
H323;84344832;;;
HBO Streaming;221364224, 221364480, 221364736;;;
Hike;195100928;;;
Hike Message Counting;195101184, 195101440, 195101696, 195101952;;;
Hike Messengerq;195100928;;;
Hopster;235012096;201392136;;
Hotline File Transfer;117768704;;;
Hotline Networking;117768448;;;
Hotline over HTTP;117769216;;;
Hotline Tracker;117768960;;;
HTTP;50397184;;;
HTTP POST;50438144;;;
HTTP-Tunnel;234946560;201392153;;
icloud;251854848;;;
ICQ File Transfer;184877568;201392132;;
ICQ Networking;184877312;201392132;;
ICQ PTT;184877824;201392132;;
Icq Voice;184879616;;;
ICQ VoIP;184878080;201392141;;
iFone Platinum;87068928, 87069184;;;
iheart Radio;256,212,992,256,213,000,000,000,000;;;
IMAP;67239936;;;
iMessage;187695872;;;
iMessage count;NA;;;
Imgur;252903680;;;
Instagram Login or Share;121635072;;;
Instagram Video;121635328, 121635584;;;
Internet Video Youtube RTMP;218365952;;;
iOS OTA Update;—;;;
Iperf;285802752, 285803008;;;
IPSEC;167903488;;;
IPSec over tcp;167903744;;;
iQIYI TV;221319424, 221319680, 221319936, 221320192, 221320448, 221320704, 221320960;;;
iQIYI- TV Box App1ication;221319424, 221319680, 221319936;;;
IRC;184614912;;;
isakmp;167903488;;;
iTube;221184256;;;
iTunes;134283520;;;
iTunes Download;134283776;;;
iTunes Radio;134285056;;;
iTunes Radio;134285312;;;
ITV Player;221356288, 221356544, 221356800, 221357056;;;
Jabber;185008128;201392135;;
JabberSSL;185008640;;;
JaJah YahooPhoneOut UDP;84608768;;;
Joost;201392138;201392132;120324096;
Joyn;87081216, 87081472;;;
Kakao Call;88081152;;;
Kakao Chat;88080640;;;
Kakao Ring;88080896;;;
Kakao Talk;88081408, 88081664;;;
Kakao Talk Message Count;88081920, 88082176, 88082432;;;
Keek;256049408;;;
Knight Online;269943040;;;
Kontiki;119144448;201392224;;
KSVOD4TV;NA;;;
Kuro;119603200;201392128;;
LapLink over SSL;285344512;;;
LapLink over TCP;285344000;;;
LapLink over TCP - Unidirectional Client Request;285344256;;;
League of Legends;269877504, 269877760;;;
LeTV;221331712, 221331968;;;
LINE;87032064, 87032570, 356;;;
Line Camera;87032832;;;
Line File Transfer;87033088;;;
Line Message Count;87033344, 87033600, 87033856;;;
LINE SIP;2265129760;;;
LINE SSL;2265129060;;;
Line Voice;87032576;;;
Line Voice;87032576;;;
LineVoip;87032576;;;
LinkedIn;252576000;;;
Location Free;201392137;201392130;120258560;
LogMeInIgnition;285474816;;;
Lottofile over TCP;121176320;;;
Lottofile over TCP - Unidirectional Client Request;121176576;;;
Lovefilm;50405376;;;
LoveFilm;50405376;;;
Mac;134947072;;;
MacOsUpdate;134947328;;;
Mailru;87060992, 87061504, 87060736,87061248;;;
Mailru;87060992, 87060736, 87061248;;;
Manolito File Transfer;118030848;;;
Manolito Networking;118030592;;;
Maple Story Control;268501760;;;
Maple Story Control - Unidirectional Server Response;268502016;;;
Maple Story Data;268501248;;;
Maple Story Data - Unidirectional Server Response;268501504;;;
MediaFire;252641280, 252641536;;;
MediaHint;168067328;;;
Megacloud;253755648;;;
MessageMe;195043600;;;
MGCP;84279296;;;
Microsoft OneDrive;252051712;;;
Mobile MMS;50724864;—;;
Monkey3 over TCP;121241856;;;
Monkey3 over TCP - Unidirectional Client Request;121242112;;;
Mozy;50864384;;;
MS MMS;50659328;;;
MS Push Mail;201392139;201392134;67502080;
Mumble Chat;86573312;;;
Mumble Voice;86573568;;;
Mute;118423552;;;
My_Com-MyMail;67830272, 67830016;;;
My-video.de;220734208;;;
mychat;195232000,195232256, 87061504;;;
Myvideo.de;220733696, 220733952;;;
Napster;134348800;;;
NateonTalkcall;87040000;;;
NateonTalkFileTransfer;87040512;;;
NateonTalkSSL;87040256;;;
NBColympics;221118720, 256114688;;;
NDRMediathek;220790784;;;
Neonet Download;118620416;;;
Netflix;218759168, 218759680,218759936, 2187560192;;;
Nimbuzz;186647296;;;
Nimbuzz over Jabber;186646784;;;
Nimbuzz over Jabber-Unidirectional Client Request;186647040;;;
Nimbuzz over RTP;186647296;;;101122048
NNTP;67174400;;;
Nodezilla;118489088;;;
NowTV;219611648;;;
NTP;100925440;201392150;;
NymGo;87064832;;;
Onlive;269615360, 269615616;;;
ooVoo IM;185468416;;;
ooVoo Voice SSL;185468160;;;
OpenDrive;255918336;;;
Opera Mobile signature;50413568;;;
Origin Chat;269484800;;;
Origin Login;269484288;;;
Pandora Audio, Pandora_SSL, Pandora;251789568, 251789824, 251789312;;;
PeerEnabler;119341056;201392176;;
Play Station4;270074112;;;
Poco; ;201392133;118882304;
POCO Download;118882560;201392146;;
POCO Networking;118882304;201392146;;
POP3;67305472;;;
PPLive-P2P;118947840;201392147;;
PPStream Download;118816768;201392145;;
PPStream Networking;118817024;201392145;;
PPStv (PPStream);118821120;;;
Pptp;201392161;201392155;201392155;
Prosieben;220922112, 220922368;;;
Proxpn VPN;168055040;;;
Proxy-based OpenVPN;167970560;;;
PSK-Based OpenVPN over TCP;167970048;;;
PSK-Based OpenVPN over UDP;167970304;;;
PTT Winphoria SIP;84213760;;;
PutIo;252248320;;;
Qik;87052544, 87052800, 87053056;;;
QQ;184745984, 184746240, 184747008,184747776;;;
QQ Networking;184746240;201392151;;
QQ_Android;184748544, 184748800;;;
QQ-IM;184745984;201392151;;
Quake3 Gaming Server;268566528;;;
Qvod;219087104, 219087872, 219088128;;;
Qvod over HTTP;219087872;;;
Qvod over http split initiator;219087616;;;
Qvod over TCP;219087104;;;
Qvod over UDP;219087360;;;
Radius Access;100729088;—;;
Radius Accounting;100729344;—;;
RapidShare;252379392;;;
Rdio;256209152, 256208896;;;
Remote Desktop Connection;286261504;;;
Rodi;119537664;201392140;;
RTL Now;220201216;;;
RTMPE;218170112;;;
RTP;84082688;;;
RTSP;50593792;;;120782848
saavn;190841088;;;
SAT1;220664064;;;
Satellite Direct;219545856;;;
SCTP Protocol;17039360;;;
Share;118292480;;;
Shoutcast;121643264;;;
SilkRoad (Game);269746432;;;
SinaWeibo;220667904;;;
SIP;84148224;;;
Skinny;84475904;;;
SkyDrive;252051712;;;
SkyDriveNetDnld;252051968;;;
Skype;84412160;;;
Skype;84410368;;;
Skype-VoIP-Mobile-To-PC;84412160;;;
SkyStore UK;221360384, 221360640;;;
Slacker Radio;256204800, 256205056;;;
Sling;50855936;201392139;;
SMTP;67371008;;;
Snapchat;195039744;;;
Sohu TV;221339904, 221340160;;;
Songsari over HTTP;121110784;;;
Songsari over HTTP - Unidirectional Client Request;121111040;;;
Songsari over TCP;121111296;;;
Songsari over TCP - Unidirectional Server Response;121111552;;;
Songsari over UDP;121111808;;;
SopCast;201392160;201392154;201392154;
Soribada;119799808;201392130;;
Soulseek File Transfer;118358528;;;
Soulseek Networking;118358272;;;
Sound Cloud;50417920, 50418170;;;
Soundcloud_HTTPS;50417920;;;
SPDY;167838208;;;
SPDY;167838208;;;
SpeedTest;50872576, 50872832, 55067392, 55067648;;;
SpeedyShare-Download;1346392352;;;
SpiderOak Hive;252772608;;;
Spotify;121373952, 121374208, 121374464;;;
Spotify Music P2P;121373440;;;
Spotify Music P2P-Unidirectional Client Request;121373696;;;120848640
Spotify Networking;121372928;;;120848896
Spotify Networking-Unidirectional Client Request;121373184;;;
SSDP-P2P;100859904;201392144;;
SSH over TCP;168034560;;;
SSL;167837696;;;
SSL Aged Flow Continuation;167837952;;;
Starcraft2;268894208, 268894464, 268894720;;;
Steam Downlaod;268636160;;;
Steam Friends;268640256;;;
StreetFighterIV;268697600;;;
StromMedia;121655552, 121655808;;;
STUN;100990976;201392142;;
Supercell-Clash of Clans;270020608, 270020864;;;
Tango;85983232, 85983488, 85983744, 85984000;;;
Tango Message count;85985024, 85984256, 85984512, 85984768;;;
TeamForstress2 TCP;269353216;;;
TeamFortress2 UDP;269353472;;;
TeamViewer;285409536, 285409792;;;
TELNET SPLIT INITIATE;101319242;;;
TELNET SPLIT INITIATOR;101319168;;;
Temp Gmail Video SSL;85525248;;;
Temp Gmail Video TCP;85524992;;;
Tencent App Gem;134955264, 134955520;;;
Tencent Weibo;285806848;;;
TencentWeibo;285806592;;;
Teredo Generic;16909056;;;
TFTP;50528256;;;
Thunder Networking;119013376;201392149;;
Titan-Fall;270016768;;;
Tivibu;220659712;;;
TomatoPang over TCP;121045248;;;
TomatoPang over TCP - Unidirectional Client Request;121045504;;;
Tor;120848384, 120849152;;;
Tor;201392162;201392156;;
Tor Over HTTP;—;—;—;
Tor Over HTTP—Unidirectional Client Request;—;—;—;
TotalMovie;219480320, 219480576;;;
Truphone over SIP;85458944;;;
TTNET Muzik;252969216;;;
Tudou;221053184, 221053440, 221053696, 221053952;;;
TuneIn Radio;220594432;;;
TunnelBear;168042752, 168043008, 168043264;;;
Twitch tv;256184320,256184576,221323520, 256188416, 221327616;;;
Twitter;252510464;;;
Twitter_SPDY;252510720;;;
Ubisoft Uplay;269811968;;;
UbuntuoneFT;191889920;;;
UbuntuoneLogin;191889664;;;
UbuntuoneStreaming;191890176;;;
UC Data;184811520;201392148;;
UC Networking;184811776;201392148;;
Ultrasurf;121651456;;;
Ultrasurf;121651712, 121651968, 121652224;;;
UNBLOCKUS;168058880;;;
V-share;119734272;201392131;;
VGTV and VGDirekte;25619512, 221344000, 256192768, 221348096, 256196864;;;
Viber;85918464;;;
Viber;85918720;;;
Viber;85918976;;;
Viber;85919232, 85923328, 85919488, 85923584, 85919744;;;
Viber ControlFlow Over TCP;85917952;;;
Viber ControlFlow Over TCP - Unidirectional Client Request;85918208;;;
Viber DataFlow Over UDP;85918464;;;
Viber Message;85920000, 85921792, 85922048;;;
Viddy;219349504;;;
Video over HTTP;201392132;50397952;;
Vimeo;219414784;;;
Vk;252707072;;;
Vopium_Call;89260032;;;
Vopium_WebIM_Call;89194496;;;
VopiumSSL;89128960;;;
Wandoujia;134951680, 134951936, 134952192;;;
Wandoujia Appstore;134951424;;;
Warcraft3_Login;269222144;;;
Warcraft3_Tcp;269222400;;;
Warez;118685696;;;
Warez Download;118685952;;;
Warez Networking;118686208;;;
Waste;118554624;;;
Watchever;221352192;;;
Watchitoo;219349248;;;
WazeGPS;50434304;;;
WeChat;87048448, 87048704;;;
Wechat Message Count;87048960, 87049216, 87049472;;;
Wetransfer;252838144;;;
WhatsApp;185598208, 185598720;;;
WhatsApp Message Count;185598720;;;
Windows Live Messenger;201392140;201392131;185139200;
Windows Store;134942976, 134943232;;;
Windows Store AppDownload;134943488, 134943744;;;
Windows Update;101187840;;;
Windows Update;101187840, 101188096;;;
WINMX;117637120;;;
Winny 1;117702912;;;
Winny 2;117703168;;;
Wuakitv;220598272;;;
Xbox One;268763392, 268763648;;;
Xbox_Video/Browsing;220672256, 220672512, 220672768, 220673024;;;
Xunlei Kankan;121667840, 121668096;;;
Yahoo General Login;184683264;;;
Yahoo Messenger;184680448;;;
Yahoo Messenger VoIP_JaJah Call Setup;84608512;;;
Yahoo Screen;220528896;;;
Yahoo VoIP;84606976;—;;
Yahoo VoIP UDP;84609536;;;
Yandex.disk;255852800, 255853056;;;
Youtube;50404096,5040435;;;
YouTube HD;50403072;;;
YouTube HTTPS;221249536, 50372608, 50372864;;;
YouTube Normal;50403584;;;
Zattoo;201392136;201392129;120193024;
ZDF Mediathek;253034752;;;
Zenmate;168050944;;;
ZONA;121663744;;;
